A,python-lolcat,"Improved version of lolcat providing shell syntax-highlighting functionality." 
,starship,"a cross-shell prompt for astronauts."
,betterbin,"A collection of the AutoLinux base platform shell scripts." 
,betterzsh,"Configurations to enhance user experience within the ZSH shell."
,ttf-linux-libertine,"package with the sans and serif fonts."
,ttf-dejavu,"package which provides the dejavu fonts."
A,tty-clock,"A terminal clock."
A,lf-git,"an extensive terminal file manager."
A,ttf-font-icons,"a collection of terminal icons."
A,youtube-music-bin,"Native youtube music desktop application." 
,exo,"An application launcher for '.desktop' files."
,rofi,"A window switcher, application launcher and dmenu replacement."
,bc,"a simple to use dropdown calculator."
,xsel,"a command-line program for getting and setting the contents of the X selection."
,dosfstools,"allows your computer to access dos-like filesystems."
,mtools,"a collection of utilities to access MS-DOS disks."
,libimobiledevice,"A tool used to teather your phone to your pc for internet connection."
,pv,"Used to monitor progress of various commands."
,progress,"Adds additional features and formats to extend pv functionality."
,efibootmgr,"user-space application used to modify the  boot manager of EFI systems."
,packagekit,"A system designed to make installation and updates of packages easier"
,packagekit-qt5,"To manage packages from Arch Linux repositories"
,flatpak,"Flatpak packages support"
,fwupd,"Firmware update support"
,gnome-software-packagekit-plugin,"PackageKit support plugin for GNOME Software"
,libnotify,"utility allowing for desktop notifications."
,dunst,"a suckless notification system."
,exfat-utils,"allows management of FAT drives."
,feh,"another useful command line tool for setting wallpapers."
,lsd," ... No words needsd for this one ;)"
A,nerd-fonts-anonymous-pro,"a collection of my favourite fonts."
A,nerd-fonts-mononoki,"a collection of my favourite fonts."
,xwallpaper,"sets the wallpaper."
,lxappearance,"a tool allowing the changing of desktop themes."
,picom,"a compositor for x."
,figlet,"some terminal shenanigancz ."
,tilda,"one of my favourite terminal emulators."
A,gtk-theme-arc-gruvbox-git,"gruvbox community edition providing the dark GTK theme."
,neovim,"vim on steroids."
,mpv,"a video player."
A,clipdl,"A simple script for downloading the most recent media link coppied to your clipboard"
A,pman,"A minimal CLI download manager for all major package managers and URLs/Torrents"
,gnome-characters,"An application very similar to kcharselect."
,sxiv,"Simple X Image Viewer."
,dzen2,"a hackable ncurses-like menu/status bar."
,man-db,"lets you read man pages of programs."
,pass,"Stores, retrieves, generates, and synchronizes passwords securely."
,pass-otp,"A pass extension for managing one-time-password (OTP) tokens."
,moreutils,"a collection of unix tools."
A,brave-nightly-bin,"an elegant browser with built-in adblocking, tor and other features."
,qutebrowser,"a customisable keyboard-driven vim-like browser."
,noto-fonts-emoji,"emojis."
,ntfs-3g,"allows the mounting and reading of NTFS drives and  partitions."
,pulseaudio-alsa,"To manage ALSA"
,pulseaudio-bluetooth,"For bluetooth support."
,pulseaudio-equalizer,"For equalizer sink."
,pulseaudio-jack,"JACK sink, source and jackdbus detection."
,pulseaudio-lirc,"For infrared volume control with LIRC."
,pulseaudio-zeroconf,"For Zeroconf (Avahi) support."
,bluetooth-autoconnect,"Automatically connects to known bluetooth devices."
,pulsemixer,"terminal based volume/audio controller."
A,sc-im,"an excel-like terminal spreadsheet manager."
A,lfp,"LF-Preview, a wrapper for the lf file manager with image previews, and other features"
,unclutter,"hides an inactive mouse."
A,python-lolcat,"unicorn puke-like text ."
,exa,"a utility that spices up the various ls commands."
,unrar,"allows for the extraction rar files."
A,yt-dlp,"A much faster fork of youtube-dl."
,npm,"a package manager for javascript."
,jp2a,"utility for converting JPG and PNG images to ASCII art."
,nodejs,"evented I/O for V8 javascript."
,myip,"a helpful tool to find your public ip address."
,paru,"an aur helper similar to yay."
A,dwm-autolinux,"Concise build of Suckless DWM."
,auto-st,"Concise build of Suckless Simple Terminal."
A,terminal-headers,"Scripts provide colorful terminal headers, meant to be placed in your shells rc file"
,ez,"Task simplificaltion scripts for increasing the speed and efficiency of common tasks"
A,qcopy,"Easily save important snippets such as passwords for quick access copying at any point"
A,lfp,"LF-Preview, a wrapper for the lf file manager with image previews, and other features"
,lib32-vkd3d,"direct3D 12 to vulkan translation library."
A,ytfzf,"a posix script which searches for youtube videos via CLI and plays them localy in mpv."
,xcp,"provides a progress bar when copying files."
,ripgrep,"a turbo version of the grep command."
,python-pynvim,"provides support for neovim to prevent issues."
,unzip,"alows user to unzips .zip files."
A,wal-git,"Generate and change colorschemes on the fly."
,elinks,"my preferred terminal browser."
,ghostscript,"An interpreter for the PostScript language, useful when working with PDFs."
,networkmanager,"a network connection manager."
,xcape,"allows for the custom keymaps in the build."
,xclip,"provides ability to copy and past from the command line."
,xdotool,"provides window action utilities in the command line."
A,whatsapp-nativefier,"Whatsapp desktop."
A,youtube-cli,"a CLI based youtube music player."
,poppler,"manipulates .pdfs and gives .pdf previews and other .pdf functions."
,fzf,"a fuzzy finder tool."
,highlight,"can highlight code output."
A,task-spooler,"queues commands or files for download."
A,simple-mtpfs,"enables the mounting of cell phones."
,htop,"a graphical and colorful system monitor."
G,https://gitlab.com/a4to/dmenu.git,"runs commands and provides a UI for selection."
,slock,"allows you to lock your computer, and quickly unlock with your password."
